module gitlab.com/intouchKey/golang-jwt

go 1.15

require (
	github.com/dgrijalva/jwt-go v3.2.0+incompatible
	github.com/gin-gonic/gin v1.6.3
	github.com/jackc/pgproto3/v2 v2.0.7 // indirect
	golang.org/x/crypto v0.0.0-20201221181555-eec23a3978ad
	golang.org/x/text v0.3.5 // indirect
	golang.org/x/xerrors v0.0.0-20200804184101-5ec99f83aff1 // indirect
	gorm.io/driver/postgres v1.0.6
	gorm.io/gorm v1.20.11
)
